%YAML 1.1
%TAG !u! tag:unity3d.com,2011:
--- !u!1001 &100100000
Prefab:
  m_ObjectHideFlags: 1
  serializedVersion: 2
  m_Modification:
    m_TransformParent: {fileID: 0}
    m_Modifications: []
    m_RemovedComponents: []
  m_SourcePrefab: {fileID: 0}
  m_RootGameObject: {fileID: 1228720605386484}
  m_IsPrefabAsset: 1
--- !u!1 &1228720605386484
GameObject:
  m_ObjectHideFlags: 0
  m_CorrespondingSourceObject: {fileID: 0}
  m_PrefabInternal: {fileID: 100100000}
  serializedVersion: 6
  m_Component:
  - component: {fileID: 4617673967767992}
  - component: {fileID: 114789742807055148}
  m_Layer: 0
  m_Name: Zombie Spawner
  m_TagString: Untagged
  m_Icon: {fileID: 0}
  m_NavMeshLayer: 0
  m_StaticEditorFlags: 0
  m_IsActive: 1
--- !u!4 &4617673967767992
Transform:
  m_ObjectHideFlags: 1
  m_CorrespondingSourceObject: {fileID: 0}
  m_PrefabInternal: {fileID: 100100000}
  m_GameObject: {fileID: 1228720605386484}
  m_LocalRotation: {x: -0, y: -0.9661849, z: -0, w: 0.25785005}
  m_LocalPosition: {x: 29, y: 0, z: -5}
  m_LocalScale: {x: 1, y: 1, z: 1}
  m_Children: []
  m_Father: {fileID: 0}
  m_RootOrder: 0
  m_LocalEulerAnglesHint: {x: 0, y: -150.115, z: 0}
--- !u!114 &114789742807055148
MonoBehaviour:
  m_ObjectHideFlags: 1
  m_CorrespondingSourceObject: {fileID: 0}
  m_PrefabInternal: {fileID: 100100000}
  m_GameObject: {fileID: 1228720605386484}
  m_Enabled: 1
  m_EditorHideFlags: 0
  m_Script: {fileID: 11500000, guid: 78fa51007d1a7124e9ec3daa54aa4015, type: 3}
  m_Name: 
  m_EditorClassIdentifier: 
  _objectsToSpawn:
  - {fileID: 1300611964618398, guid: 77e5b5fa85bdfc441b23807a0a306fcb, type: 2}
  _parent: {fileID: 0}
